{
  "_meta": {
    "sources": [
      "../common/models",
      "./models"
    ],
    "mixins": [
      "../common/mixins",
      "./mixins"
    ]
  },
  "MetabolicUser": {
    "dataSource": "remote"
  }
}
